%YAML 1.1
%TAG !u! tag:unity3d.com,2011:
--- !u!114 &11400000
MonoBehaviour:
  m_ObjectHideFlags: 0
  m_CorrespondingSourceObject: {fileID: 0}
  m_PrefabInstance: {fileID: 0}
  m_PrefabAsset: {fileID: 0}
  m_GameObject: {fileID: 0}
  m_Enabled: 1
  m_EditorHideFlags: 0
  m_Script: {fileID: 11500000, guid: 47dd857892435644da7e3a768fa9c98c, type: 3}
  m_Name: DangerInfoInstaller
  m_EditorClassIdentifier: 
  dangerinfo: {fileID: 11400000, guid: e6e674a30f1c17b43b10bda297516a2f, type: 2}
