%YAML 1.1
%TAG !u! tag:unity3d.com,2011:
--- !u!1001 &6589825506109309834
PrefabInstance:
  m_ObjectHideFlags: 0
  serializedVersion: 2
  m_Modification:
    m_TransformParent: {fileID: 0}
    m_Modifications:
    - target: {fileID: 4326784247270400791, guid: 730a9a09f76f7164e941fd5233410270,
        type: 3}
      propertyPath: m_Name
      value: GameMenutext
      objectReference: {fileID: 0}
    - target: {fileID: 4630946670141006283, guid: 730a9a09f76f7164e941fd5233410270,
        type: 3}
      propertyPath: m_LocalPosition.x
      value: 0
      objectReference: {fileID: 0}
    - target: {fileID: 4630946670141006283, guid: 730a9a09f76f7164e941fd5233410270,
        type: 3}
      propertyPath: m_LocalPosition.y
      value: 0
      objectReference: {fileID: 0}
    - target: {fileID: 4630946670141006283, guid: 730a9a09f76f7164e941fd5233410270,
        type: 3}
      propertyPath: m_LocalPosition.z
      value: 0
      objectReference: {fileID: 0}
    - target: {fileID: 4630946670141006283, guid: 730a9a09f76f7164e941fd5233410270,
        type: 3}
      propertyPath: m_LocalRotation.x
      value: -0
      objectReference: {fileID: 0}
    - target: {fileID: 4630946670141006283, guid: 730a9a09f76f7164e941fd5233410270,
        type: 3}
      propertyPath: m_LocalRotation.y
      value: -0
      objectReference: {fileID: 0}
    - target: {fileID: 4630946670141006283, guid: 730a9a09f76f7164e941fd5233410270,
        type: 3}
      propertyPath: m_LocalRotation.z
      value: -0
      objectReference: {fileID: 0}
    - target: {fileID: 4630946670141006283, guid: 730a9a09f76f7164e941fd5233410270,
        type: 3}
      propertyPath: m_LocalRotation.w
      value: 1
      objectReference: {fileID: 0}
    - target: {fileID: 4630946670141006283, guid: 730a9a09f76f7164e941fd5233410270,
        type: 3}
      propertyPath: m_RootOrder
      value: 0
      objectReference: {fileID: 0}
    - target: {fileID: 4630946670141006283, guid: 730a9a09f76f7164e941fd5233410270,
        type: 3}
      propertyPath: m_LocalEulerAnglesHint.x
      value: 0
      objectReference: {fileID: 0}
    - target: {fileID: 4630946670141006283, guid: 730a9a09f76f7164e941fd5233410270,
        type: 3}
      propertyPath: m_LocalEulerAnglesHint.y
      value: 0
      objectReference: {fileID: 0}
    - target: {fileID: 4630946670141006283, guid: 730a9a09f76f7164e941fd5233410270,
        type: 3}
      propertyPath: m_LocalEulerAnglesHint.z
      value: 0
      objectReference: {fileID: 0}
    - target: {fileID: 4630946670141006283, guid: 730a9a09f76f7164e941fd5233410270,
        type: 3}
      propertyPath: m_AnchoredPosition.x
      value: 0
      objectReference: {fileID: 0}
    - target: {fileID: 4630946670141006283, guid: 730a9a09f76f7164e941fd5233410270,
        type: 3}
      propertyPath: m_AnchoredPosition.y
      value: -20
      objectReference: {fileID: 0}
    - target: {fileID: 4630946670141006283, guid: 730a9a09f76f7164e941fd5233410270,
        type: 3}
      propertyPath: m_SizeDelta.x
      value: 0
      objectReference: {fileID: 0}
    - target: {fileID: 4630946670141006283, guid: 730a9a09f76f7164e941fd5233410270,
        type: 3}
      propertyPath: m_SizeDelta.y
      value: 20
      objectReference: {fileID: 0}
    - target: {fileID: 4630946670141006283, guid: 730a9a09f76f7164e941fd5233410270,
        type: 3}
      propertyPath: m_AnchorMin.x
      value: 0
      objectReference: {fileID: 0}
    - target: {fileID: 4630946670141006283, guid: 730a9a09f76f7164e941fd5233410270,
        type: 3}
      propertyPath: m_AnchorMin.y
      value: 0
      objectReference: {fileID: 0}
    - target: {fileID: 4630946670141006283, guid: 730a9a09f76f7164e941fd5233410270,
        type: 3}
      propertyPath: m_AnchorMax.x
      value: 1
      objectReference: {fileID: 0}
    - target: {fileID: 4630946670141006283, guid: 730a9a09f76f7164e941fd5233410270,
        type: 3}
      propertyPath: m_AnchorMax.y
      value: 0
      objectReference: {fileID: 0}
    - target: {fileID: 4630946670141006283, guid: 730a9a09f76f7164e941fd5233410270,
        type: 3}
      propertyPath: m_Pivot.x
      value: 0.5
      objectReference: {fileID: 0}
    - target: {fileID: 4630946670141006283, guid: 730a9a09f76f7164e941fd5233410270,
        type: 3}
      propertyPath: m_Pivot.y
      value: 0
      objectReference: {fileID: 0}
    - target: {fileID: 4484042354394833824, guid: 730a9a09f76f7164e941fd5233410270,
        type: 3}
      propertyPath: m_textInfo.characterCount
      value: 10
      objectReference: {fileID: 0}
    - target: {fileID: 4484042354394833824, guid: 730a9a09f76f7164e941fd5233410270,
        type: 3}
      propertyPath: m_textInfo.wordCount
      value: 2
      objectReference: {fileID: 0}
    - target: {fileID: 4484042354394833824, guid: 730a9a09f76f7164e941fd5233410270,
        type: 3}
      propertyPath: m_textInfo.lineCount
      value: 1
      objectReference: {fileID: 0}
    - target: {fileID: 4484042354394833824, guid: 730a9a09f76f7164e941fd5233410270,
        type: 3}
      propertyPath: m_textInfo.pageCount
      value: 1
      objectReference: {fileID: 0}
    - target: {fileID: 4484042354394833824, guid: 730a9a09f76f7164e941fd5233410270,
        type: 3}
      propertyPath: m_fontSize
      value: 11.1
      objectReference: {fileID: 0}
    - target: {fileID: 4484042354394833824, guid: 730a9a09f76f7164e941fd5233410270,
        type: 3}
      propertyPath: m_fontSizeBase
      value: 11.1
      objectReference: {fileID: 0}
    - target: {fileID: 4484042354394833824, guid: 730a9a09f76f7164e941fd5233410270,
        type: 3}
      propertyPath: m_firstOverflowCharacterIndex
      value: -1
      objectReference: {fileID: 0}
    - target: {fileID: 4484042354394833824, guid: 730a9a09f76f7164e941fd5233410270,
        type: 3}
      propertyPath: m_text
      value: Building 1
      objectReference: {fileID: 0}
    - target: {fileID: 4484042354394833824, guid: 730a9a09f76f7164e941fd5233410270,
        type: 3}
      propertyPath: m_textInfo.spaceCount
      value: 1
      objectReference: {fileID: 0}
    - target: {fileID: 4484042354394833824, guid: 730a9a09f76f7164e941fd5233410270,
        type: 3}
      propertyPath: m_margin.x
      value: 0
      objectReference: {fileID: 0}
    - target: {fileID: 4484042354394833824, guid: 730a9a09f76f7164e941fd5233410270,
        type: 3}
      propertyPath: m_textAlignment
      value: 514
      objectReference: {fileID: 0}
    - target: {fileID: 4484042354394833824, guid: 730a9a09f76f7164e941fd5233410270,
        type: 3}
      propertyPath: m_fontAsset
      value: 
      objectReference: {fileID: 11400000, guid: 8f586378b4e144a9851e7b34d9b748ee,
        type: 2}
    - target: {fileID: 4484042354394833824, guid: 730a9a09f76f7164e941fd5233410270,
        type: 3}
      propertyPath: m_sharedMaterial
      value: 
      objectReference: {fileID: 2180264, guid: 8f586378b4e144a9851e7b34d9b748ee, type: 2}
    - target: {fileID: 4484042354394833824, guid: 730a9a09f76f7164e941fd5233410270,
        type: 3}
      propertyPath: m_fontColor.r
      value: 1
      objectReference: {fileID: 0}
    - target: {fileID: 4484042354394833824, guid: 730a9a09f76f7164e941fd5233410270,
        type: 3}
      propertyPath: m_fontColor.g
      value: 1
      objectReference: {fileID: 0}
    - target: {fileID: 4484042354394833824, guid: 730a9a09f76f7164e941fd5233410270,
        type: 3}
      propertyPath: m_fontColor.b
      value: 1
      objectReference: {fileID: 0}
    - target: {fileID: 4484042354394833824, guid: 730a9a09f76f7164e941fd5233410270,
        type: 3}
      propertyPath: m_fontColor32.rgba
      value: 4294967295
      objectReference: {fileID: 0}
    m_RemovedComponents: []
  m_SourcePrefab: {fileID: 100100000, guid: 730a9a09f76f7164e941fd5233410270, type: 3}
