%YAML 1.1
%TAG !u! tag:unity3d.com,2011:
--- !u!1001 &6137496382381591041
PrefabInstance:
  m_ObjectHideFlags: 0
  serializedVersion: 2
  m_Modification:
    m_TransformParent: {fileID: 0}
    m_Modifications:
    - target: {fileID: 7577050359115770134, guid: 3cd03725d551ce64d949b59952be17fd,
        type: 3}
      propertyPath: m_Name
      value: GameMenutext
      objectReference: {fileID: 0}
    - target: {fileID: 1542668710468250570, guid: 3cd03725d551ce64d949b59952be17fd,
        type: 3}
      propertyPath: m_LocalPosition.x
      value: 0
      objectReference: {fileID: 0}
    - target: {fileID: 1542668710468250570, guid: 3cd03725d551ce64d949b59952be17fd,
        type: 3}
      propertyPath: m_LocalPosition.y
      value: 0
      objectReference: {fileID: 0}
    - target: {fileID: 1542668710468250570, guid: 3cd03725d551ce64d949b59952be17fd,
        type: 3}
      propertyPath: m_LocalPosition.z
      value: 0
      objectReference: {fileID: 0}
    - target: {fileID: 1542668710468250570, guid: 3cd03725d551ce64d949b59952be17fd,
        type: 3}
      propertyPath: m_LocalRotation.x
      value: 0
      objectReference: {fileID: 0}
    - target: {fileID: 1542668710468250570, guid: 3cd03725d551ce64d949b59952be17fd,
        type: 3}
      propertyPath: m_LocalRotation.y
      value: 0
      objectReference: {fileID: 0}
    - target: {fileID: 1542668710468250570, guid: 3cd03725d551ce64d949b59952be17fd,
        type: 3}
      propertyPath: m_LocalRotation.z
      value: 0
      objectReference: {fileID: 0}
    - target: {fileID: 1542668710468250570, guid: 3cd03725d551ce64d949b59952be17fd,
        type: 3}
      propertyPath: m_LocalRotation.w
      value: 1
      objectReference: {fileID: 0}
    - target: {fileID: 1542668710468250570, guid: 3cd03725d551ce64d949b59952be17fd,
        type: 3}
      propertyPath: m_RootOrder
      value: 0
      objectReference: {fileID: 0}
    - target: {fileID: 1542668710468250570, guid: 3cd03725d551ce64d949b59952be17fd,
        type: 3}
      propertyPath: m_LocalEulerAnglesHint.x
      value: 0
      objectReference: {fileID: 0}
    - target: {fileID: 1542668710468250570, guid: 3cd03725d551ce64d949b59952be17fd,
        type: 3}
      propertyPath: m_LocalEulerAnglesHint.y
      value: 0
      objectReference: {fileID: 0}
    - target: {fileID: 1542668710468250570, guid: 3cd03725d551ce64d949b59952be17fd,
        type: 3}
      propertyPath: m_LocalEulerAnglesHint.z
      value: 0
      objectReference: {fileID: 0}
    - target: {fileID: 1542668710468250570, guid: 3cd03725d551ce64d949b59952be17fd,
        type: 3}
      propertyPath: m_AnchoredPosition.x
      value: 0
      objectReference: {fileID: 0}
    - target: {fileID: 1542668710468250570, guid: 3cd03725d551ce64d949b59952be17fd,
        type: 3}
      propertyPath: m_AnchoredPosition.y
      value: 0
      objectReference: {fileID: 0}
    - target: {fileID: 1542668710468250570, guid: 3cd03725d551ce64d949b59952be17fd,
        type: 3}
      propertyPath: m_SizeDelta.x
      value: 200
      objectReference: {fileID: 0}
    - target: {fileID: 1542668710468250570, guid: 3cd03725d551ce64d949b59952be17fd,
        type: 3}
      propertyPath: m_SizeDelta.y
      value: 50
      objectReference: {fileID: 0}
    - target: {fileID: 1542668710468250570, guid: 3cd03725d551ce64d949b59952be17fd,
        type: 3}
      propertyPath: m_AnchorMin.x
      value: 0
      objectReference: {fileID: 0}
    - target: {fileID: 1542668710468250570, guid: 3cd03725d551ce64d949b59952be17fd,
        type: 3}
      propertyPath: m_AnchorMin.y
      value: 1
      objectReference: {fileID: 0}
    - target: {fileID: 1542668710468250570, guid: 3cd03725d551ce64d949b59952be17fd,
        type: 3}
      propertyPath: m_AnchorMax.x
      value: 0
      objectReference: {fileID: 0}
    - target: {fileID: 1542668710468250570, guid: 3cd03725d551ce64d949b59952be17fd,
        type: 3}
      propertyPath: m_AnchorMax.y
      value: 1
      objectReference: {fileID: 0}
    - target: {fileID: 1542668710468250570, guid: 3cd03725d551ce64d949b59952be17fd,
        type: 3}
      propertyPath: m_Pivot.x
      value: 0
      objectReference: {fileID: 0}
    - target: {fileID: 1542668710468250570, guid: 3cd03725d551ce64d949b59952be17fd,
        type: 3}
      propertyPath: m_Pivot.y
      value: 1
      objectReference: {fileID: 0}
    - target: {fileID: 7716426147639798177, guid: 3cd03725d551ce64d949b59952be17fd,
        type: 3}
      propertyPath: m_textInfo.characterCount
      value: 1
      objectReference: {fileID: 0}
    - target: {fileID: 7716426147639798177, guid: 3cd03725d551ce64d949b59952be17fd,
        type: 3}
      propertyPath: m_textInfo.wordCount
      value: 1
      objectReference: {fileID: 0}
    - target: {fileID: 7716426147639798177, guid: 3cd03725d551ce64d949b59952be17fd,
        type: 3}
      propertyPath: m_textInfo.lineCount
      value: 1
      objectReference: {fileID: 0}
    - target: {fileID: 7716426147639798177, guid: 3cd03725d551ce64d949b59952be17fd,
        type: 3}
      propertyPath: m_textInfo.pageCount
      value: 1
      objectReference: {fileID: 0}
    - target: {fileID: 7716426147639798177, guid: 3cd03725d551ce64d949b59952be17fd,
        type: 3}
      propertyPath: m_textAlignment
      value: 513
      objectReference: {fileID: 0}
    - target: {fileID: 7716426147639798177, guid: 3cd03725d551ce64d949b59952be17fd,
        type: 3}
      propertyPath: m_firstOverflowCharacterIndex
      value: -1
      objectReference: {fileID: 0}
    - target: {fileID: 7716426147639798177, guid: 3cd03725d551ce64d949b59952be17fd,
        type: 3}
      propertyPath: m_fontSize
      value: 36
      objectReference: {fileID: 0}
    - target: {fileID: 7716426147639798177, guid: 3cd03725d551ce64d949b59952be17fd,
        type: 3}
      propertyPath: m_fontSizeBase
      value: 36
      objectReference: {fileID: 0}
    - target: {fileID: 7716426147639798177, guid: 3cd03725d551ce64d949b59952be17fd,
        type: 3}
      propertyPath: m_margin.x
      value: 0
      objectReference: {fileID: 0}
    - target: {fileID: 7716426147639798177, guid: 3cd03725d551ce64d949b59952be17fd,
        type: 3}
      propertyPath: m_text
      value: 0
      objectReference: {fileID: 0}
    m_RemovedComponents: []
  m_SourcePrefab: {fileID: 100100000, guid: 3cd03725d551ce64d949b59952be17fd, type: 3}
