%YAML 1.1
%TAG !u! tag:unity3d.com,2011:
--- !u!29 &1
OcclusionCullingSettings:
  m_ObjectHideFlags: 0
  serializedVersion: 2
  m_OcclusionBakeSettings:
    smallestOccluder: 5
    smallestHole: 0.25
    backfaceThreshold: 100
  m_SceneGUID: 00000000000000000000000000000000
  m_OcclusionCullingData: {fileID: 0}
--- !u!104 &2
RenderSettings:
  m_ObjectHideFlags: 0
  serializedVersion: 9
  m_Fog: 0
  m_FogColor: {r: 0.5, g: 0.5, b: 0.5, a: 1}
  m_FogMode: 3
  m_FogDensity: 0.01
  m_LinearFogStart: 0
  m_LinearFogEnd: 300
  m_AmbientSkyColor: {r: 0.212, g: 0.227, b: 0.259, a: 1}
  m_AmbientEquatorColor: {r: 0.114, g: 0.125, b: 0.133, a: 1}
  m_AmbientGroundColor: {r: 0.047, g: 0.043, b: 0.035, a: 1}
  m_AmbientIntensity: 1
  m_AmbientMode: 3
  m_SubtractiveShadowColor: {r: 0.42, g: 0.478, b: 0.627, a: 1}
  m_SkyboxMaterial: {fileID: 0}
  m_HaloStrength: 0.5
  m_FlareStrength: 1
  m_FlareFadeSpeed: 3
  m_HaloTexture: {fileID: 0}
  m_SpotCookie: {fileID: 10001, guid: 0000000000000000e000000000000000, type: 0}
  m_DefaultReflectionMode: 0
  m_DefaultReflectionResolution: 128
  m_ReflectionBounces: 1
  m_ReflectionIntensity: 1
  m_CustomReflection: {fileID: 0}
  m_Sun: {fileID: 0}
  m_IndirectSpecularColor: {r: 0, g: 0, b: 0, a: 1}
  m_UseRadianceAmbientProbe: 0
--- !u!157 &3
LightmapSettings:
  m_ObjectHideFlags: 0
  serializedVersion: 11
  m_GIWorkflowMode: 1
  m_GISettings:
    serializedVersion: 2
    m_BounceScale: 1
    m_IndirectOutputScale: 1
    m_AlbedoBoost: 1
    m_EnvironmentLightingMode: 0
    m_EnableBakedLightmaps: 0
    m_EnableRealtimeLightmaps: 0
  m_LightmapEditorSettings:
    serializedVersion: 12
    m_Resolution: 2
    m_BakeResolution: 40
    m_AtlasSize: 1024
    m_AO: 0
    m_AOMaxDistance: 1
    m_CompAOExponent: 1
    m_CompAOExponentDirect: 0
    m_ExtractAmbientOcclusion: 0
    m_Padding: 2
    m_LightmapParameters: {fileID: 0}
    m_LightmapsBakeMode: 1
    m_TextureCompression: 1
    m_FinalGather: 0
    m_FinalGatherFiltering: 1
    m_FinalGatherRayCount: 256
    m_ReflectionCompression: 2
    m_MixedBakeMode: 2
    m_BakeBackend: 1
    m_PVRSampling: 1
    m_PVRDirectSampleCount: 32
    m_PVRSampleCount: 512
    m_PVRBounces: 2
    m_PVREnvironmentSampleCount: 256
    m_PVREnvironmentReferencePointCount: 2048
    m_PVRFilteringMode: 1
    m_PVRDenoiserTypeDirect: 1
    m_PVRDenoiserTypeIndirect: 1
    m_PVRDenoiserTypeAO: 1
    m_PVRFilterTypeDirect: 0
    m_PVRFilterTypeIndirect: 0
    m_PVRFilterTypeAO: 0
    m_PVREnvironmentMIS: 1
    m_PVRCulling: 1
    m_PVRFilteringGaussRadiusDirect: 1
    m_PVRFilteringGaussRadiusIndirect: 5
    m_PVRFilteringGaussRadiusAO: 2
    m_PVRFilteringAtrousPositionSigmaDirect: 0.5
    m_PVRFilteringAtrousPositionSigmaIndirect: 2
    m_PVRFilteringAtrousPositionSigmaAO: 1
    m_ExportTrainingData: 0
    m_TrainingDataDestination: TrainingData
  m_LightingDataAsset: {fileID: 0}
  m_UseShadowmask: 1
--- !u!196 &4
NavMeshSettings:
  serializedVersion: 2
  m_ObjectHideFlags: 0
  m_BuildSettings:
    serializedVersion: 2
    agentTypeID: 0
    agentRadius: 0.5
    agentHeight: 2
    agentSlope: 45
    agentClimb: 0.4
    ledgeDropHeight: 0
    maxJumpAcrossDistance: 0
    minRegionArea: 2
    manualCellSize: 0
    cellSize: 0.16666667
    manualTileSize: 0
    tileSize: 256
    accuratePlacement: 0
    debug:
      m_Flags: 0
  m_NavMeshData: {fileID: 0}
--- !u!1 &287258856
GameObject:
  m_ObjectHideFlags: 0
  m_CorrespondingSourceObject: {fileID: 0}
  m_PrefabInstance: {fileID: 0}
  m_PrefabAsset: {fileID: 0}
  serializedVersion: 6
  m_Component:
  - component: {fileID: 287258859}
  - component: {fileID: 287258858}
  - component: {fileID: 287258857}
  m_Layer: 0
  m_Name: EventSystem
  m_TagString: Untagged
  m_Icon: {fileID: 0}
  m_NavMeshLayer: 0
  m_StaticEditorFlags: 0
  m_IsActive: 1
--- !u!114 &287258857
MonoBehaviour:
  m_ObjectHideFlags: 0
  m_CorrespondingSourceObject: {fileID: 0}
  m_PrefabInstance: {fileID: 0}
  m_PrefabAsset: {fileID: 0}
  m_GameObject: {fileID: 287258856}
  m_Enabled: 1
  m_EditorHideFlags: 0
  m_Script: {fileID: 11500000, guid: 4f231c4fb786f3946a6b90b886c48677, type: 3}
  m_Name: 
  m_EditorClassIdentifier: 
  m_HorizontalAxis: Horizontal
  m_VerticalAxis: Vertical
  m_SubmitButton: Submit
  m_CancelButton: Cancel
  m_InputActionsPerSecond: 10
  m_RepeatDelay: 0.5
  m_ForceModuleActive: 0
--- !u!114 &287258858
MonoBehaviour:
  m_ObjectHideFlags: 0
  m_CorrespondingSourceObject: {fileID: 0}
  m_PrefabInstance: {fileID: 0}
  m_PrefabAsset: {fileID: 0}
  m_GameObject: {fileID: 287258856}
  m_Enabled: 1
  m_EditorHideFlags: 0
  m_Script: {fileID: 11500000, guid: 76c392e42b5098c458856cdf6ecaaaa1, type: 3}
  m_Name: 
  m_EditorClassIdentifier: 
  m_FirstSelected: {fileID: 0}
  m_sendNavigationEvents: 1
  m_DragThreshold: 10
--- !u!4 &287258859
Transform:
  m_ObjectHideFlags: 0
  m_CorrespondingSourceObject: {fileID: 0}
  m_PrefabInstance: {fileID: 0}
  m_PrefabAsset: {fileID: 0}
  m_GameObject: {fileID: 287258856}
  m_LocalRotation: {x: 0, y: 0, z: 0, w: 1}
  m_LocalPosition: {x: 0, y: 0, z: 0}
  m_LocalScale: {x: 1, y: 1, z: 1}
  m_Children: []
  m_Father: {fileID: 0}
  m_RootOrder: 2
  m_LocalEulerAnglesHint: {x: 0, y: 0, z: 0}
--- !u!20 &747018522 stripped
Camera:
  m_CorrespondingSourceObject: {fileID: 5011456533985184291, guid: b39fb598d77458643ae872fd8048bc59,
    type: 3}
  m_PrefabInstance: {fileID: 5011456533657670457}
  m_PrefabAsset: {fileID: 0}
--- !u!1001 &794796721
PrefabInstance:
  m_ObjectHideFlags: 0
  serializedVersion: 2
  m_Modification:
    m_TransformParent: {fileID: 2026900681}
    m_Modifications:
    - target: {fileID: 3570629060617488539, guid: 6fb1810b4a36d154eba4760a80f688c7,
        type: 3}
      propertyPath: m_Name
      value: GamePanel
      objectReference: {fileID: 0}
    - target: {fileID: 3570629060617488539, guid: 6fb1810b4a36d154eba4760a80f688c7,
        type: 3}
      propertyPath: m_IsActive
      value: 0
      objectReference: {fileID: 0}
    - target: {fileID: 3570629060617488540, guid: 6fb1810b4a36d154eba4760a80f688c7,
        type: 3}
      propertyPath: m_LocalPosition.x
      value: 0
      objectReference: {fileID: 0}
    - target: {fileID: 3570629060617488540, guid: 6fb1810b4a36d154eba4760a80f688c7,
        type: 3}
      propertyPath: m_LocalPosition.y
      value: 0
      objectReference: {fileID: 0}
    - target: {fileID: 3570629060617488540, guid: 6fb1810b4a36d154eba4760a80f688c7,
        type: 3}
      propertyPath: m_LocalPosition.z
      value: 0
      objectReference: {fileID: 0}
    - target: {fileID: 3570629060617488540, guid: 6fb1810b4a36d154eba4760a80f688c7,
        type: 3}
      propertyPath: m_LocalRotation.x
      value: 0
      objectReference: {fileID: 0}
    - target: {fileID: 3570629060617488540, guid: 6fb1810b4a36d154eba4760a80f688c7,
        type: 3}
      propertyPath: m_LocalRotation.y
      value: 0
      objectReference: {fileID: 0}
    - target: {fileID: 3570629060617488540, guid: 6fb1810b4a36d154eba4760a80f688c7,
        type: 3}
      propertyPath: m_LocalRotation.z
      value: 0
      objectReference: {fileID: 0}
    - target: {fileID: 3570629060617488540, guid: 6fb1810b4a36d154eba4760a80f688c7,
        type: 3}
      propertyPath: m_LocalRotation.w
      value: 1
      objectReference: {fileID: 0}
    - target: {fileID: 3570629060617488540, guid: 6fb1810b4a36d154eba4760a80f688c7,
        type: 3}
      propertyPath: m_RootOrder
      value: 1
      objectReference: {fileID: 0}
    - target: {fileID: 3570629060617488540, guid: 6fb1810b4a36d154eba4760a80f688c7,
        type: 3}
      propertyPath: m_LocalEulerAnglesHint.x
      value: 0
      objectReference: {fileID: 0}
    - target: {fileID: 3570629060617488540, guid: 6fb1810b4a36d154eba4760a80f688c7,
        type: 3}
      propertyPath: m_LocalEulerAnglesHint.y
      value: 0
      objectReference: {fileID: 0}
    - target: {fileID: 3570629060617488540, guid: 6fb1810b4a36d154eba4760a80f688c7,
        type: 3}
      propertyPath: m_LocalEulerAnglesHint.z
      value: 0
      objectReference: {fileID: 0}
    - target: {fileID: 3570629060617488540, guid: 6fb1810b4a36d154eba4760a80f688c7,
        type: 3}
      propertyPath: m_AnchoredPosition.x
      value: 0
      objectReference: {fileID: 0}
    - target: {fileID: 3570629060617488540, guid: 6fb1810b4a36d154eba4760a80f688c7,
        type: 3}
      propertyPath: m_AnchoredPosition.y
      value: 0
      objectReference: {fileID: 0}
    - target: {fileID: 3570629060617488540, guid: 6fb1810b4a36d154eba4760a80f688c7,
        type: 3}
      propertyPath: m_SizeDelta.x
      value: 0
      objectReference: {fileID: 0}
    - target: {fileID: 3570629060617488540, guid: 6fb1810b4a36d154eba4760a80f688c7,
        type: 3}
      propertyPath: m_SizeDelta.y
      value: 0
      objectReference: {fileID: 0}
    - target: {fileID: 3570629060617488540, guid: 6fb1810b4a36d154eba4760a80f688c7,
        type: 3}
      propertyPath: m_AnchorMin.x
      value: 0
      objectReference: {fileID: 0}
    - target: {fileID: 3570629060617488540, guid: 6fb1810b4a36d154eba4760a80f688c7,
        type: 3}
      propertyPath: m_AnchorMin.y
      value: 0
      objectReference: {fileID: 0}
    - target: {fileID: 3570629060617488540, guid: 6fb1810b4a36d154eba4760a80f688c7,
        type: 3}
      propertyPath: m_AnchorMax.x
      value: 1
      objectReference: {fileID: 0}
    - target: {fileID: 3570629060617488540, guid: 6fb1810b4a36d154eba4760a80f688c7,
        type: 3}
      propertyPath: m_AnchorMax.y
      value: 1
      objectReference: {fileID: 0}
    - target: {fileID: 3570629060617488540, guid: 6fb1810b4a36d154eba4760a80f688c7,
        type: 3}
      propertyPath: m_Pivot.x
      value: 0.5
      objectReference: {fileID: 0}
    - target: {fileID: 3570629060617488540, guid: 6fb1810b4a36d154eba4760a80f688c7,
        type: 3}
      propertyPath: m_Pivot.y
      value: 0.5
      objectReference: {fileID: 0}
    - target: {fileID: 1132629974542570285, guid: 6fb1810b4a36d154eba4760a80f688c7,
        type: 3}
      propertyPath: m_textInfo.characterCount
      value: 0
      objectReference: {fileID: 0}
    - target: {fileID: 1132629974542570285, guid: 6fb1810b4a36d154eba4760a80f688c7,
        type: 3}
      propertyPath: m_textInfo.wordCount
      value: 0
      objectReference: {fileID: 0}
    - target: {fileID: 1132629974542570285, guid: 6fb1810b4a36d154eba4760a80f688c7,
        type: 3}
      propertyPath: m_textInfo.lineCount
      value: 0
      objectReference: {fileID: 0}
    - target: {fileID: 1132629974542570285, guid: 6fb1810b4a36d154eba4760a80f688c7,
        type: 3}
      propertyPath: m_textInfo.pageCount
      value: 0
      objectReference: {fileID: 0}
    - target: {fileID: 1823843902654304490, guid: 6fb1810b4a36d154eba4760a80f688c7,
        type: 3}
      propertyPath: m_textInfo.characterCount
      value: 0
      objectReference: {fileID: 0}
    - target: {fileID: 1823843902654304490, guid: 6fb1810b4a36d154eba4760a80f688c7,
        type: 3}
      propertyPath: m_textInfo.spaceCount
      value: 0
      objectReference: {fileID: 0}
    - target: {fileID: 1823843902654304490, guid: 6fb1810b4a36d154eba4760a80f688c7,
        type: 3}
      propertyPath: m_textInfo.wordCount
      value: 0
      objectReference: {fileID: 0}
    - target: {fileID: 1823843902654304490, guid: 6fb1810b4a36d154eba4760a80f688c7,
        type: 3}
      propertyPath: m_textInfo.lineCount
      value: 0
      objectReference: {fileID: 0}
    - target: {fileID: 1823843902654304490, guid: 6fb1810b4a36d154eba4760a80f688c7,
        type: 3}
      propertyPath: m_textInfo.pageCount
      value: 0
      objectReference: {fileID: 0}
    - target: {fileID: 6108054925921335919, guid: 6fb1810b4a36d154eba4760a80f688c7,
        type: 3}
      propertyPath: m_textInfo.characterCount
      value: 0
      objectReference: {fileID: 0}
    - target: {fileID: 6108054925921335919, guid: 6fb1810b4a36d154eba4760a80f688c7,
        type: 3}
      propertyPath: m_textInfo.spaceCount
      value: 0
      objectReference: {fileID: 0}
    - target: {fileID: 6108054925921335919, guid: 6fb1810b4a36d154eba4760a80f688c7,
        type: 3}
      propertyPath: m_textInfo.wordCount
      value: 0
      objectReference: {fileID: 0}
    - target: {fileID: 6108054925921335919, guid: 6fb1810b4a36d154eba4760a80f688c7,
        type: 3}
      propertyPath: m_textInfo.lineCount
      value: 0
      objectReference: {fileID: 0}
    - target: {fileID: 6108054925921335919, guid: 6fb1810b4a36d154eba4760a80f688c7,
        type: 3}
      propertyPath: m_textInfo.pageCount
      value: 0
      objectReference: {fileID: 0}
    m_RemovedComponents: []
  m_SourcePrefab: {fileID: 100100000, guid: 6fb1810b4a36d154eba4760a80f688c7, type: 3}
--- !u!224 &794796722 stripped
RectTransform:
  m_CorrespondingSourceObject: {fileID: 3570629060617488540, guid: 6fb1810b4a36d154eba4760a80f688c7,
    type: 3}
  m_PrefabInstance: {fileID: 794796721}
  m_PrefabAsset: {fileID: 0}
--- !u!114 &794796723 stripped
MonoBehaviour:
  m_CorrespondingSourceObject: {fileID: 3570629060617488543, guid: 6fb1810b4a36d154eba4760a80f688c7,
    type: 3}
  m_PrefabInstance: {fileID: 794796721}
  m_PrefabAsset: {fileID: 0}
  m_GameObject: {fileID: 0}
  m_Enabled: 1
  m_EditorHideFlags: 0
  m_Script: {fileID: 11500000, guid: 790c615b3b4fb1848bd39e4a917305f0, type: 3}
  m_Name: 
  m_EditorClassIdentifier: 
--- !u!1 &1397907089 stripped
GameObject:
  m_CorrespondingSourceObject: {fileID: 6961105402121572646, guid: 92c4a3de83ce3384ab2502764cc35a26,
    type: 3}
  m_PrefabInstance: {fileID: 6961105400801267639}
  m_PrefabAsset: {fileID: 0}
--- !u!1001 &1538072884
PrefabInstance:
  m_ObjectHideFlags: 0
  serializedVersion: 2
  m_Modification:
    m_TransformParent: {fileID: 2026900681}
    m_Modifications:
    - target: {fileID: 5478842906143355995, guid: 0a0f60b1401dfb84aa3c767891676fe1,
        type: 3}
      propertyPath: m_Name
      value: MenuPanel
      objectReference: {fileID: 0}
    - target: {fileID: 5478842906143355995, guid: 0a0f60b1401dfb84aa3c767891676fe1,
        type: 3}
      propertyPath: m_IsActive
      value: 1
      objectReference: {fileID: 0}
    - target: {fileID: 1212144673033175938, guid: 0a0f60b1401dfb84aa3c767891676fe1,
        type: 3}
      propertyPath: m_LocalPosition.x
      value: 0
      objectReference: {fileID: 0}
    - target: {fileID: 1212144673033175938, guid: 0a0f60b1401dfb84aa3c767891676fe1,
        type: 3}
      propertyPath: m_LocalPosition.y
      value: 0
      objectReference: {fileID: 0}
    - target: {fileID: 1212144673033175938, guid: 0a0f60b1401dfb84aa3c767891676fe1,
        type: 3}
      propertyPath: m_LocalPosition.z
      value: 0
      objectReference: {fileID: 0}
    - target: {fileID: 1212144673033175938, guid: 0a0f60b1401dfb84aa3c767891676fe1,
        type: 3}
      propertyPath: m_LocalRotation.x
      value: 0
      objectReference: {fileID: 0}
    - target: {fileID: 1212144673033175938, guid: 0a0f60b1401dfb84aa3c767891676fe1,
        type: 3}
      propertyPath: m_LocalRotation.y
      value: 0
      objectReference: {fileID: 0}
    - target: {fileID: 1212144673033175938, guid: 0a0f60b1401dfb84aa3c767891676fe1,
        type: 3}
      propertyPath: m_LocalRotation.z
      value: 0
      objectReference: {fileID: 0}
    - target: {fileID: 1212144673033175938, guid: 0a0f60b1401dfb84aa3c767891676fe1,
        type: 3}
      propertyPath: m_LocalRotation.w
      value: 1
      objectReference: {fileID: 0}
    - target: {fileID: 1212144673033175938, guid: 0a0f60b1401dfb84aa3c767891676fe1,
        type: 3}
      propertyPath: m_RootOrder
      value: 0
      objectReference: {fileID: 0}
    - target: {fileID: 1212144673033175938, guid: 0a0f60b1401dfb84aa3c767891676fe1,
        type: 3}
      propertyPath: m_LocalEulerAnglesHint.x
      value: 0
      objectReference: {fileID: 0}
    - target: {fileID: 1212144673033175938, guid: 0a0f60b1401dfb84aa3c767891676fe1,
        type: 3}
      propertyPath: m_LocalEulerAnglesHint.y
      value: 0
      objectReference: {fileID: 0}
    - target: {fileID: 1212144673033175938, guid: 0a0f60b1401dfb84aa3c767891676fe1,
        type: 3}
      propertyPath: m_LocalEulerAnglesHint.z
      value: 0
      objectReference: {fileID: 0}
    - target: {fileID: 1212144673033175938, guid: 0a0f60b1401dfb84aa3c767891676fe1,
        type: 3}
      propertyPath: m_AnchoredPosition.x
      value: 0
      objectReference: {fileID: 0}
    - target: {fileID: 1212144673033175938, guid: 0a0f60b1401dfb84aa3c767891676fe1,
        type: 3}
      propertyPath: m_AnchoredPosition.y
      value: 0
      objectReference: {fileID: 0}
    - target: {fileID: 1212144673033175938, guid: 0a0f60b1401dfb84aa3c767891676fe1,
        type: 3}
      propertyPath: m_SizeDelta.x
      value: 0
      objectReference: {fileID: 0}
    - target: {fileID: 1212144673033175938, guid: 0a0f60b1401dfb84aa3c767891676fe1,
        type: 3}
      propertyPath: m_SizeDelta.y
      value: 0
      objectReference: {fileID: 0}
    - target: {fileID: 1212144673033175938, guid: 0a0f60b1401dfb84aa3c767891676fe1,
        type: 3}
      propertyPath: m_AnchorMin.x
      value: 0
      objectReference: {fileID: 0}
    - target: {fileID: 1212144673033175938, guid: 0a0f60b1401dfb84aa3c767891676fe1,
        type: 3}
      propertyPath: m_AnchorMin.y
      value: 0
      objectReference: {fileID: 0}
    - target: {fileID: 1212144673033175938, guid: 0a0f60b1401dfb84aa3c767891676fe1,
        type: 3}
      propertyPath: m_AnchorMax.x
      value: 1
      objectReference: {fileID: 0}
    - target: {fileID: 1212144673033175938, guid: 0a0f60b1401dfb84aa3c767891676fe1,
        type: 3}
      propertyPath: m_AnchorMax.y
      value: 1
      objectReference: {fileID: 0}
    - target: {fileID: 1212144673033175938, guid: 0a0f60b1401dfb84aa3c767891676fe1,
        type: 3}
      propertyPath: m_Pivot.x
      value: 0.5
      objectReference: {fileID: 0}
    - target: {fileID: 1212144673033175938, guid: 0a0f60b1401dfb84aa3c767891676fe1,
        type: 3}
      propertyPath: m_Pivot.y
      value: 0.5
      objectReference: {fileID: 0}
    - target: {fileID: 2951603811435075359, guid: 0a0f60b1401dfb84aa3c767891676fe1,
        type: 3}
      propertyPath: m_textInfo.characterCount
      value: 9
      objectReference: {fileID: 0}
    - target: {fileID: 2951603811435075359, guid: 0a0f60b1401dfb84aa3c767891676fe1,
        type: 3}
      propertyPath: m_textInfo.wordCount
      value: 1
      objectReference: {fileID: 0}
    - target: {fileID: 2951603811435075359, guid: 0a0f60b1401dfb84aa3c767891676fe1,
        type: 3}
      propertyPath: m_textInfo.lineCount
      value: 1
      objectReference: {fileID: 0}
    - target: {fileID: 2951603811435075359, guid: 0a0f60b1401dfb84aa3c767891676fe1,
        type: 3}
      propertyPath: m_textInfo.pageCount
      value: 1
      objectReference: {fileID: 0}
    - target: {fileID: 8005869543391276380, guid: 0a0f60b1401dfb84aa3c767891676fe1,
        type: 3}
      propertyPath: m_OnClick.m_PersistentCalls.m_Calls.Array.size
      value: 1
      objectReference: {fileID: 0}
    - target: {fileID: 8005869543391276380, guid: 0a0f60b1401dfb84aa3c767891676fe1,
        type: 3}
      propertyPath: m_OnClick.m_PersistentCalls.m_Calls.Array.data[0].m_Mode
      value: 1
      objectReference: {fileID: 0}
    - target: {fileID: 8005869543391276380, guid: 0a0f60b1401dfb84aa3c767891676fe1,
        type: 3}
      propertyPath: m_OnClick.m_PersistentCalls.m_Calls.Array.data[0].m_CallState
      value: 2
      objectReference: {fileID: 0}
    - target: {fileID: 8005869543391276380, guid: 0a0f60b1401dfb84aa3c767891676fe1,
        type: 3}
      propertyPath: m_OnClick.m_PersistentCalls.m_Calls.Array.data[0].m_Target
      value: 
      objectReference: {fileID: 1945873680}
    - target: {fileID: 8005869543391276380, guid: 0a0f60b1401dfb84aa3c767891676fe1,
        type: 3}
      propertyPath: m_OnClick.m_PersistentCalls.m_Calls.Array.data[0].m_MethodName
      value: Play
      objectReference: {fileID: 0}
    - target: {fileID: 8005869543391276380, guid: 0a0f60b1401dfb84aa3c767891676fe1,
        type: 3}
      propertyPath: m_OnClick.m_PersistentCalls.m_Calls.Array.data[0].m_Arguments.m_ObjectArgumentAssemblyTypeName
      value: UnityEngine.Object, UnityEngine
      objectReference: {fileID: 0}
    m_RemovedComponents: []
  m_SourcePrefab: {fileID: 100100000, guid: 0a0f60b1401dfb84aa3c767891676fe1, type: 3}
--- !u!224 &1538072885 stripped
RectTransform:
  m_CorrespondingSourceObject: {fileID: 1212144673033175938, guid: 0a0f60b1401dfb84aa3c767891676fe1,
    type: 3}
  m_PrefabInstance: {fileID: 1538072884}
  m_PrefabAsset: {fileID: 0}
--- !u!114 &1538072886 stripped
MonoBehaviour:
  m_CorrespondingSourceObject: {fileID: -4726305328481090353, guid: 0a0f60b1401dfb84aa3c767891676fe1,
    type: 3}
  m_PrefabInstance: {fileID: 1538072884}
  m_PrefabAsset: {fileID: 0}
  m_GameObject: {fileID: 0}
  m_Enabled: 1
  m_EditorHideFlags: 0
  m_Script: {fileID: 11500000, guid: 790c615b3b4fb1848bd39e4a917305f0, type: 3}
  m_Name: 
  m_EditorClassIdentifier: 
--- !u!114 &1945873680 stripped
MonoBehaviour:
  m_CorrespondingSourceObject: {fileID: 8445219144844260698, guid: eef476e9f52ba0642b8ade9010972234,
    type: 3}
  m_PrefabInstance: {fileID: 8445219144550225994}
  m_PrefabAsset: {fileID: 0}
  m_GameObject: {fileID: 0}
  m_Enabled: 1
  m_EditorHideFlags: 0
  m_Script: {fileID: 11500000, guid: 97f12c5e2165406468a6cb911af10ab9, type: 3}
  m_Name: 
  m_EditorClassIdentifier: 
--- !u!1 &2026900677
GameObject:
  m_ObjectHideFlags: 0
  m_CorrespondingSourceObject: {fileID: 0}
  m_PrefabInstance: {fileID: 0}
  m_PrefabAsset: {fileID: 0}
  serializedVersion: 6
  m_Component:
  - component: {fileID: 2026900681}
  - component: {fileID: 2026900680}
  - component: {fileID: 2026900679}
  - component: {fileID: 2026900678}
  m_Layer: 5
  m_Name: Canvas
  m_TagString: Untagged
  m_Icon: {fileID: 0}
  m_NavMeshLayer: 0
  m_StaticEditorFlags: 0
  m_IsActive: 1
--- !u!114 &2026900678
MonoBehaviour:
  m_ObjectHideFlags: 0
  m_CorrespondingSourceObject: {fileID: 0}
  m_PrefabInstance: {fileID: 0}
  m_PrefabAsset: {fileID: 0}
  m_GameObject: {fileID: 2026900677}
  m_Enabled: 1
  m_EditorHideFlags: 0
  m_Script: {fileID: 11500000, guid: dc42784cf147c0c48a680349fa168899, type: 3}
  m_Name: 
  m_EditorClassIdentifier: 
  m_IgnoreReversedGraphics: 1
  m_BlockingObjects: 0
  m_BlockingMask:
    serializedVersion: 2
    m_Bits: 4294967295
--- !u!114 &2026900679
MonoBehaviour:
  m_ObjectHideFlags: 0
  m_CorrespondingSourceObject: {fileID: 0}
  m_PrefabInstance: {fileID: 0}
  m_PrefabAsset: {fileID: 0}
  m_GameObject: {fileID: 2026900677}
  m_Enabled: 1
  m_EditorHideFlags: 0
  m_Script: {fileID: 11500000, guid: 0cd44c1031e13a943bb63640046fad76, type: 3}
  m_Name: 
  m_EditorClassIdentifier: 
  m_UiScaleMode: 1
  m_ReferencePixelsPerUnit: 100
  m_ScaleFactor: 1
  m_ReferenceResolution: {x: 800, y: 600}
  m_ScreenMatchMode: 0
  m_MatchWidthOrHeight: 0
  m_PhysicalUnit: 3
  m_FallbackScreenDPI: 96
  m_DefaultSpriteDPI: 96
  m_DynamicPixelsPerUnit: 1
--- !u!223 &2026900680
Canvas:
  m_ObjectHideFlags: 0
  m_CorrespondingSourceObject: {fileID: 0}
  m_PrefabInstance: {fileID: 0}
  m_PrefabAsset: {fileID: 0}
  m_GameObject: {fileID: 2026900677}
  m_Enabled: 1
  serializedVersion: 3
  m_RenderMode: 1
  m_Camera: {fileID: 747018522}
  m_PlaneDistance: 100
  m_PixelPerfect: 0
  m_ReceivesEvents: 1
  m_OverrideSorting: 0
  m_OverridePixelPerfect: 0
  m_SortingBucketNormalizedSize: 0
  m_AdditionalShaderChannelsFlag: 25
  m_SortingLayerID: 0
  m_SortingOrder: 0
  m_TargetDisplay: 0
--- !u!224 &2026900681
RectTransform:
  m_ObjectHideFlags: 0
  m_CorrespondingSourceObject: {fileID: 0}
  m_PrefabInstance: {fileID: 0}
  m_PrefabAsset: {fileID: 0}
  m_GameObject: {fileID: 2026900677}
  m_LocalRotation: {x: 0, y: 0, z: 0, w: 1}
  m_LocalPosition: {x: 0, y: 0, z: 0}
  m_LocalScale: {x: 0, y: 0, z: 0}
  m_Children:
  - {fileID: 1538072885}
  - {fileID: 794796722}
  - {fileID: 7383952019705810031}
  m_Father: {fileID: 0}
  m_RootOrder: 1
  m_LocalEulerAnglesHint: {x: 0, y: 0, z: 0}
  m_AnchorMin: {x: 0, y: 0}
  m_AnchorMax: {x: 0, y: 0}
  m_AnchoredPosition: {x: 0, y: 0}
  m_SizeDelta: {x: 0, y: 0}
  m_Pivot: {x: 0, y: 0}
--- !u!1001 &4838961987888276545
PrefabInstance:
  m_ObjectHideFlags: 0
  serializedVersion: 2
  m_Modification:
    m_TransformParent: {fileID: 0}
    m_Modifications:
    - target: {fileID: 4838961987135023393, guid: e1a9aa60c09d04f478371200637aae02,
        type: 3}
      propertyPath: m_Name
      value: SceneContext
      objectReference: {fileID: 0}
    - target: {fileID: 4838961987135023395, guid: e1a9aa60c09d04f478371200637aae02,
        type: 3}
      propertyPath: m_LocalPosition.x
      value: -5.7579103
      objectReference: {fileID: 0}
    - target: {fileID: 4838961987135023395, guid: e1a9aa60c09d04f478371200637aae02,
        type: 3}
      propertyPath: m_LocalPosition.y
      value: 0.11998339
      objectReference: {fileID: 0}
    - target: {fileID: 4838961987135023395, guid: e1a9aa60c09d04f478371200637aae02,
        type: 3}
      propertyPath: m_LocalPosition.z
      value: -11.316406
      objectReference: {fileID: 0}
    - target: {fileID: 4838961987135023395, guid: e1a9aa60c09d04f478371200637aae02,
        type: 3}
      propertyPath: m_LocalRotation.x
      value: 0
      objectReference: {fileID: 0}
    - target: {fileID: 4838961987135023395, guid: e1a9aa60c09d04f478371200637aae02,
        type: 3}
      propertyPath: m_LocalRotation.y
      value: 0
      objectReference: {fileID: 0}
    - target: {fileID: 4838961987135023395, guid: e1a9aa60c09d04f478371200637aae02,
        type: 3}
      propertyPath: m_LocalRotation.z
      value: 0
      objectReference: {fileID: 0}
    - target: {fileID: 4838961987135023395, guid: e1a9aa60c09d04f478371200637aae02,
        type: 3}
      propertyPath: m_LocalRotation.w
      value: 1
      objectReference: {fileID: 0}
    - target: {fileID: 4838961987135023395, guid: e1a9aa60c09d04f478371200637aae02,
        type: 3}
      propertyPath: m_RootOrder
      value: 4
      objectReference: {fileID: 0}
    - target: {fileID: 4838961987135023395, guid: e1a9aa60c09d04f478371200637aae02,
        type: 3}
      propertyPath: m_LocalEulerAnglesHint.x
      value: 0
      objectReference: {fileID: 0}
    - target: {fileID: 4838961987135023395, guid: e1a9aa60c09d04f478371200637aae02,
        type: 3}
      propertyPath: m_LocalEulerAnglesHint.y
      value: 0
      objectReference: {fileID: 0}
    - target: {fileID: 4838961987135023395, guid: e1a9aa60c09d04f478371200637aae02,
        type: 3}
      propertyPath: m_LocalEulerAnglesHint.z
      value: 0
      objectReference: {fileID: 0}
    m_RemovedComponents: []
  m_SourcePrefab: {fileID: 100100000, guid: e1a9aa60c09d04f478371200637aae02, type: 3}
--- !u!1001 &5011456533657670457
PrefabInstance:
  m_ObjectHideFlags: 0
  serializedVersion: 2
  m_Modification:
    m_TransformParent: {fileID: 0}
    m_Modifications:
    - target: {fileID: 5011456533985184288, guid: b39fb598d77458643ae872fd8048bc59,
        type: 3}
      propertyPath: m_Name
      value: Main Camera
      objectReference: {fileID: 0}
    - target: {fileID: 5011456533985184293, guid: b39fb598d77458643ae872fd8048bc59,
        type: 3}
      propertyPath: m_LocalPosition.x
      value: 0
      objectReference: {fileID: 0}
    - target: {fileID: 5011456533985184293, guid: b39fb598d77458643ae872fd8048bc59,
        type: 3}
      propertyPath: m_LocalPosition.y
      value: 0
      objectReference: {fileID: 0}
    - target: {fileID: 5011456533985184293, guid: b39fb598d77458643ae872fd8048bc59,
        type: 3}
      propertyPath: m_LocalPosition.z
      value: -10
      objectReference: {fileID: 0}
    - target: {fileID: 5011456533985184293, guid: b39fb598d77458643ae872fd8048bc59,
        type: 3}
      propertyPath: m_LocalRotation.x
      value: 0
      objectReference: {fileID: 0}
    - target: {fileID: 5011456533985184293, guid: b39fb598d77458643ae872fd8048bc59,
        type: 3}
      propertyPath: m_LocalRotation.y
      value: 0
      objectReference: {fileID: 0}
    - target: {fileID: 5011456533985184293, guid: b39fb598d77458643ae872fd8048bc59,
        type: 3}
      propertyPath: m_LocalRotation.z
      value: 0
      objectReference: {fileID: 0}
    - target: {fileID: 5011456533985184293, guid: b39fb598d77458643ae872fd8048bc59,
        type: 3}
      propertyPath: m_LocalRotation.w
      value: 1
      objectReference: {fileID: 0}
    - target: {fileID: 5011456533985184293, guid: b39fb598d77458643ae872fd8048bc59,
        type: 3}
      propertyPath: m_RootOrder
      value: 0
      objectReference: {fileID: 0}
    - target: {fileID: 5011456533985184293, guid: b39fb598d77458643ae872fd8048bc59,
        type: 3}
      propertyPath: m_LocalEulerAnglesHint.x
      value: 0
      objectReference: {fileID: 0}
    - target: {fileID: 5011456533985184293, guid: b39fb598d77458643ae872fd8048bc59,
        type: 3}
      propertyPath: m_LocalEulerAnglesHint.y
      value: 0
      objectReference: {fileID: 0}
    - target: {fileID: 5011456533985184293, guid: b39fb598d77458643ae872fd8048bc59,
        type: 3}
      propertyPath: m_LocalEulerAnglesHint.z
      value: 0
      objectReference: {fileID: 0}
    m_RemovedComponents: []
  m_SourcePrefab: {fileID: 100100000, guid: b39fb598d77458643ae872fd8048bc59, type: 3}
--- !u!114 &5243241431602613026 stripped
MonoBehaviour:
  m_CorrespondingSourceObject: {fileID: 3078665326376661754, guid: d18fc1651c947784aa23b63486474eee,
    type: 3}
  m_PrefabInstance: {fileID: 7096021000050375128}
  m_PrefabAsset: {fileID: 0}
  m_GameObject: {fileID: 0}
  m_Enabled: 1
  m_EditorHideFlags: 0
  m_Script: {fileID: 11500000, guid: 790c615b3b4fb1848bd39e4a917305f0, type: 3}
  m_Name: 
  m_EditorClassIdentifier: 
--- !u!1001 &6961105400801267639
PrefabInstance:
  m_ObjectHideFlags: 0
  serializedVersion: 2
  m_Modification:
    m_TransformParent: {fileID: 0}
    m_Modifications:
    - target: {fileID: 6961105402121572646, guid: 92c4a3de83ce3384ab2502764cc35a26,
        type: 3}
      propertyPath: m_Name
      value: Planet
      objectReference: {fileID: 0}
    - target: {fileID: 6961105402121572644, guid: 92c4a3de83ce3384ab2502764cc35a26,
        type: 3}
      propertyPath: m_LocalPosition.x
      value: 0
      objectReference: {fileID: 0}
    - target: {fileID: 6961105402121572644, guid: 92c4a3de83ce3384ab2502764cc35a26,
        type: 3}
      propertyPath: m_LocalPosition.y
      value: 0
      objectReference: {fileID: 0}
    - target: {fileID: 6961105402121572644, guid: 92c4a3de83ce3384ab2502764cc35a26,
        type: 3}
      propertyPath: m_LocalPosition.z
      value: 0
      objectReference: {fileID: 0}
    - target: {fileID: 6961105402121572644, guid: 92c4a3de83ce3384ab2502764cc35a26,
        type: 3}
      propertyPath: m_LocalRotation.x
      value: 0
      objectReference: {fileID: 0}
    - target: {fileID: 6961105402121572644, guid: 92c4a3de83ce3384ab2502764cc35a26,
        type: 3}
      propertyPath: m_LocalRotation.y
      value: 0
      objectReference: {fileID: 0}
    - target: {fileID: 6961105402121572644, guid: 92c4a3de83ce3384ab2502764cc35a26,
        type: 3}
      propertyPath: m_LocalRotation.z
      value: 0
      objectReference: {fileID: 0}
    - target: {fileID: 6961105402121572644, guid: 92c4a3de83ce3384ab2502764cc35a26,
        type: 3}
      propertyPath: m_LocalRotation.w
      value: 1
      objectReference: {fileID: 0}
    - target: {fileID: 6961105402121572644, guid: 92c4a3de83ce3384ab2502764cc35a26,
        type: 3}
      propertyPath: m_RootOrder
      value: 3
      objectReference: {fileID: 0}
    - target: {fileID: 6961105402121572644, guid: 92c4a3de83ce3384ab2502764cc35a26,
        type: 3}
      propertyPath: m_LocalEulerAnglesHint.x
      value: 0
      objectReference: {fileID: 0}
    - target: {fileID: 6961105402121572644, guid: 92c4a3de83ce3384ab2502764cc35a26,
        type: 3}
      propertyPath: m_LocalEulerAnglesHint.y
      value: 0
      objectReference: {fileID: 0}
    - target: {fileID: 6961105402121572644, guid: 92c4a3de83ce3384ab2502764cc35a26,
        type: 3}
      propertyPath: m_LocalEulerAnglesHint.z
      value: 0
      objectReference: {fileID: 0}
    m_RemovedComponents: []
  m_SourcePrefab: {fileID: 100100000, guid: 92c4a3de83ce3384ab2502764cc35a26, type: 3}
--- !u!1001 &7096021000050375128
PrefabInstance:
  m_ObjectHideFlags: 0
  serializedVersion: 2
  m_Modification:
    m_TransformParent: {fileID: 2026900681}
    m_Modifications:
    - target: {fileID: 6402312230967214702, guid: d18fc1651c947784aa23b63486474eee,
        type: 3}
      propertyPath: m_Name
      value: LosePanel
      objectReference: {fileID: 0}
    - target: {fileID: 289128392201156023, guid: d18fc1651c947784aa23b63486474eee,
        type: 3}
      propertyPath: m_LocalPosition.x
      value: 0
      objectReference: {fileID: 0}
    - target: {fileID: 289128392201156023, guid: d18fc1651c947784aa23b63486474eee,
        type: 3}
      propertyPath: m_LocalPosition.y
      value: 0
      objectReference: {fileID: 0}
    - target: {fileID: 289128392201156023, guid: d18fc1651c947784aa23b63486474eee,
        type: 3}
      propertyPath: m_LocalPosition.z
      value: 0
      objectReference: {fileID: 0}
    - target: {fileID: 289128392201156023, guid: d18fc1651c947784aa23b63486474eee,
        type: 3}
      propertyPath: m_LocalRotation.x
      value: 0
      objectReference: {fileID: 0}
    - target: {fileID: 289128392201156023, guid: d18fc1651c947784aa23b63486474eee,
        type: 3}
      propertyPath: m_LocalRotation.y
      value: 0
      objectReference: {fileID: 0}
    - target: {fileID: 289128392201156023, guid: d18fc1651c947784aa23b63486474eee,
        type: 3}
      propertyPath: m_LocalRotation.z
      value: 0
      objectReference: {fileID: 0}
    - target: {fileID: 289128392201156023, guid: d18fc1651c947784aa23b63486474eee,
        type: 3}
      propertyPath: m_LocalRotation.w
      value: 1
      objectReference: {fileID: 0}
    - target: {fileID: 289128392201156023, guid: d18fc1651c947784aa23b63486474eee,
        type: 3}
      propertyPath: m_RootOrder
      value: 2
      objectReference: {fileID: 0}
    - target: {fileID: 289128392201156023, guid: d18fc1651c947784aa23b63486474eee,
        type: 3}
      propertyPath: m_LocalEulerAnglesHint.x
      value: 0
      objectReference: {fileID: 0}
    - target: {fileID: 289128392201156023, guid: d18fc1651c947784aa23b63486474eee,
        type: 3}
      propertyPath: m_LocalEulerAnglesHint.y
      value: 0
      objectReference: {fileID: 0}
    - target: {fileID: 289128392201156023, guid: d18fc1651c947784aa23b63486474eee,
        type: 3}
      propertyPath: m_LocalEulerAnglesHint.z
      value: 0
      objectReference: {fileID: 0}
    - target: {fileID: 289128392201156023, guid: d18fc1651c947784aa23b63486474eee,
        type: 3}
      propertyPath: m_AnchoredPosition.x
      value: 0
      objectReference: {fileID: 0}
    - target: {fileID: 289128392201156023, guid: d18fc1651c947784aa23b63486474eee,
        type: 3}
      propertyPath: m_AnchoredPosition.y
      value: 0
      objectReference: {fileID: 0}
    - target: {fileID: 289128392201156023, guid: d18fc1651c947784aa23b63486474eee,
        type: 3}
      propertyPath: m_SizeDelta.x
      value: 0
      objectReference: {fileID: 0}
    - target: {fileID: 289128392201156023, guid: d18fc1651c947784aa23b63486474eee,
        type: 3}
      propertyPath: m_SizeDelta.y
      value: 0
      objectReference: {fileID: 0}
    - target: {fileID: 289128392201156023, guid: d18fc1651c947784aa23b63486474eee,
        type: 3}
      propertyPath: m_AnchorMin.x
      value: 0
      objectReference: {fileID: 0}
    - target: {fileID: 289128392201156023, guid: d18fc1651c947784aa23b63486474eee,
        type: 3}
      propertyPath: m_AnchorMin.y
      value: 0
      objectReference: {fileID: 0}
    - target: {fileID: 289128392201156023, guid: d18fc1651c947784aa23b63486474eee,
        type: 3}
      propertyPath: m_AnchorMax.x
      value: 1
      objectReference: {fileID: 0}
    - target: {fileID: 289128392201156023, guid: d18fc1651c947784aa23b63486474eee,
        type: 3}
      propertyPath: m_AnchorMax.y
      value: 1
      objectReference: {fileID: 0}
    - target: {fileID: 289128392201156023, guid: d18fc1651c947784aa23b63486474eee,
        type: 3}
      propertyPath: m_Pivot.x
      value: 0.5
      objectReference: {fileID: 0}
    - target: {fileID: 289128392201156023, guid: d18fc1651c947784aa23b63486474eee,
        type: 3}
      propertyPath: m_Pivot.y
      value: 0.5
      objectReference: {fileID: 0}
    - target: {fileID: 8920461509743860585, guid: d18fc1651c947784aa23b63486474eee,
        type: 3}
      propertyPath: m_OnClick.m_PersistentCalls.m_Calls.Array.data[0].m_Target
      value: 
      objectReference: {fileID: 1945873680}
    m_RemovedComponents: []
  m_SourcePrefab: {fileID: 100100000, guid: d18fc1651c947784aa23b63486474eee, type: 3}
--- !u!224 &7383952019705810031 stripped
RectTransform:
  m_CorrespondingSourceObject: {fileID: 289128392201156023, guid: d18fc1651c947784aa23b63486474eee,
    type: 3}
  m_PrefabInstance: {fileID: 7096021000050375128}
  m_PrefabAsset: {fileID: 0}
--- !u!1001 &8445219144550225994
PrefabInstance:
  m_ObjectHideFlags: 0
  serializedVersion: 2
  m_Modification:
    m_TransformParent: {fileID: 0}
    m_Modifications:
    - target: {fileID: 8445219144844260677, guid: eef476e9f52ba0642b8ade9010972234,
        type: 3}
      propertyPath: m_Name
      value: MenuManager
      objectReference: {fileID: 0}
    - target: {fileID: 8445219144844260699, guid: eef476e9f52ba0642b8ade9010972234,
        type: 3}
      propertyPath: m_LocalPosition.x
      value: 0
      objectReference: {fileID: 0}
    - target: {fileID: 8445219144844260699, guid: eef476e9f52ba0642b8ade9010972234,
        type: 3}
      propertyPath: m_LocalPosition.y
      value: 0
      objectReference: {fileID: 0}
    - target: {fileID: 8445219144844260699, guid: eef476e9f52ba0642b8ade9010972234,
        type: 3}
      propertyPath: m_LocalPosition.z
      value: 0
      objectReference: {fileID: 0}
    - target: {fileID: 8445219144844260699, guid: eef476e9f52ba0642b8ade9010972234,
        type: 3}
      propertyPath: m_LocalRotation.x
      value: 0
      objectReference: {fileID: 0}
    - target: {fileID: 8445219144844260699, guid: eef476e9f52ba0642b8ade9010972234,
        type: 3}
      propertyPath: m_LocalRotation.y
      value: 0
      objectReference: {fileID: 0}
    - target: {fileID: 8445219144844260699, guid: eef476e9f52ba0642b8ade9010972234,
        type: 3}
      propertyPath: m_LocalRotation.z
      value: 0
      objectReference: {fileID: 0}
    - target: {fileID: 8445219144844260699, guid: eef476e9f52ba0642b8ade9010972234,
        type: 3}
      propertyPath: m_LocalRotation.w
      value: 1
      objectReference: {fileID: 0}
    - target: {fileID: 8445219144844260699, guid: eef476e9f52ba0642b8ade9010972234,
        type: 3}
      propertyPath: m_RootOrder
      value: 5
      objectReference: {fileID: 0}
    - target: {fileID: 8445219144844260699, guid: eef476e9f52ba0642b8ade9010972234,
        type: 3}
      propertyPath: m_LocalEulerAnglesHint.x
      value: 0
      objectReference: {fileID: 0}
    - target: {fileID: 8445219144844260699, guid: eef476e9f52ba0642b8ade9010972234,
        type: 3}
      propertyPath: m_LocalEulerAnglesHint.y
      value: 0
      objectReference: {fileID: 0}
    - target: {fileID: 8445219144844260699, guid: eef476e9f52ba0642b8ade9010972234,
        type: 3}
      propertyPath: m_LocalEulerAnglesHint.z
      value: 0
      objectReference: {fileID: 0}
    - target: {fileID: 8445219144844260698, guid: eef476e9f52ba0642b8ade9010972234,
        type: 3}
      propertyPath: panels.Array.data[0]
      value: 
      objectReference: {fileID: 1538072886}
    - target: {fileID: 8445219144844260698, guid: eef476e9f52ba0642b8ade9010972234,
        type: 3}
      propertyPath: panels.Array.data[1]
      value: 
      objectReference: {fileID: 794796723}
    - target: {fileID: 8445219144844260698, guid: eef476e9f52ba0642b8ade9010972234,
        type: 3}
      propertyPath: panels.Array.data[2]
      value: 
      objectReference: {fileID: 5243241431602613026}
    - target: {fileID: 8445219144844260698, guid: eef476e9f52ba0642b8ade9010972234,
        type: 3}
      propertyPath: gameObjects.Array.data[0]
      value: 
      objectReference: {fileID: 1397907089}
    m_RemovedComponents: []
  m_SourcePrefab: {fileID: 100100000, guid: eef476e9f52ba0642b8ade9010972234, type: 3}
